{
	"compra": [
		{
			"ID_COMPRA": "1",
			"METODOPAGO": 1,
			"FECHA_COMPRA": "2010-04-09",
			"USUARIO_CEDULA": "5"
		},
		{
			"ID_COMPRA": "2",
			"METODOPAGO": 2,
			"FECHA_COMPRA": "2015-07-19",
			"USUARIO_CEDULA": "98765"
		},
		{
			"ID_COMPRA": "3",
			"METODOPAGO": 3,
			"FECHA_COMPRA":"2016-02-28",
			"USUARIO_CEDULA": "98765"
		},
		{
			"ID_COMPRA": "4",
			"METODOPAGO": 0,
			"FECHA_COMPRA":"2019-09-30",
			"USUARIO_CEDULA": "98765"
		},
		{
			"ID_COMPRA": "5",
			"METODOPAGO": 1,
			"FECHA_COMPRA":"2019-09-30",
			"USUARIO_CEDULA": "24680"
		}
		
	
]
}